{
  "configVersion": 2,
  "packages": [
    {
      "name": "assets_audio_player",
      "rootUri": "file:///C:/flutter/.pub-cache/hosted/pub.dartlang.org/assets_audio_player-2.0.10",
      "packageUri": "lib/",
      "languageVersion": "2.6"
    },
    {
      "name": "assets_audio_player_web",
      "rootUri": "file:///C:/flutter/.pub-cache/hosted/pub.dartlang.org/assets_audio_player_web-2.0.9+2",
      "packageUri": "lib/",
      "languageVersion": "2.6"
    },
    {
      "name": "async",
      "rootUri": "file:///C:/flutter/.pub-cache/hosted/pub.dartlang.org/async-2.4.2",
      "packageUri": "lib/",
      "languageVersion": "2.2"
    },
    {
      "name": "audioplayers",
      "rootUri": "file:///C:/flutter/.pub-cache/hosted/pub.dartlang.org/audioplayers-0.16.1",
      "packageUri": "lib/",
      "languageVersion": "2.6"
    },
    {
      "name": "boolean_selector",
      "rootUri": "file:///C:/flutter/.pub-cache/hosted/pub.dartlang.org/boolean_selector-2.0.0",
      "packageUri": "lib/",
      "languageVersion": "2.4"
    },
    {
      "name": "cached_network_image",
      "rootUri": "file:///C:/flutter/.pub-cache/hosted/pub.dartlang.org/cached_network_image-2.3.2+1",
      "packageUri": "lib/",
      "languageVersion": "2.9"
    },
    {
      "name": "characters",
      "rootUri": "file:///C:/flutter/.pub-cache/hosted/pub.dartlang.org/characters-1.0.0",
      "packageUri": "lib/",
      "languageVersion": "2.6"
    },
    {
      "name": "charcode",
      "rootUri": "file:///C:/flutter/.pub-cache/hosted/pub.dartlang.org/charcode-1.1.3",
      "packageUri": "lib/",
      "languageVersion": "2.0"
    },
    {
      "name": "chewie",
      "rootUri": "file:///C:/flutter/.pub-cache/hosted/pub.dartlang.org/chewie-0.9.10",
      "packageUri": "lib/",
      "languageVersion": "2.0"
    },
    {
      "name": "clock",
      "rootUri": "file:///C:/flutter/.pub-cache/hosted/pub.dartlang.org/clock-1.0.1",
      "packageUri": "lib/",
      "languageVersion": "2.0"
    },
    {
      "name": "collection",
      "rootUri": "file:///C:/flutter/.pub-cache/hosted/pub.dartlang.org/collection-1.14.13",
      "packageUri": "lib/",
      "languageVersion": "2.3"
    },
    {
      "name": "convert",
      "rootUri": "file:///C:/flutter/.pub-cache/hosted/pub.dartlang.org/convert-2.1.1",
      "packageUri": "lib/",
      "languageVersion": "1.17"
    },
    {
      "name": "crypto",
      "rootUri": "file:///C:/flutter/.pub-cache/hosted/pub.dartlang.org/crypto-2.1.5",
      "packageUri": "lib/",
      "languageVersion": "2.3"
    },
    {
      "name": "csslib",
      "rootUri": "file:///C:/flutter/.pub-cache/hosted/pub.dartlang.org/csslib-0.16.2",
      "packageUri": "lib/",
      "languageVersion": "2.2"
    },
    {
      "name": "cupertino_icons",
      "rootUri": "file:///C:/flutter/.pub-cache/hosted/pub.dartlang.org/cupertino_icons-1.0.0",
      "packageUri": "lib/",
      "languageVersion": "2.0"
    },
    {
      "name": "deeply",
      "rootUri": "file:///C:/flutter/.pub-cache/hosted/pub.dartlang.org/deeply-1.0.1",
      "packageUri": "lib/",
      "languageVersion": "2.0"
    },
    {
      "name": "dio",
      "rootUri": "file:///C:/flutter/.pub-cache/hosted/pub.dartlang.org/dio-3.0.10",
      "packageUri": "lib/",
      "languageVersion": "2.4"
    },
    {
      "name": "esys_flutter_share",
      "rootUri": "file:///C:/flutter/.pub-cache/hosted/pub.dartlang.org/esys_flutter_share-1.0.2",
      "packageUri": "lib/",
      "languageVersion": "2.0"
    },
    {
      "name": "execution_queue",
      "rootUri": "file:///C:/flutter/.pub-cache/hosted/pub.dartlang.org/execution_queue-1.0.3",
      "packageUri": "lib/",
      "languageVersion": "2.7"
    },
    {
      "name": "ext_storage",
      "rootUri": "file:///C:/flutter/.pub-cache/hosted/pub.dartlang.org/ext_storage-1.0.3",
      "packageUri": "lib/",
      "languageVersion": "2.1"
    },
    {
      "name": "fake_async",
      "rootUri": "file:///C:/flutter/.pub-cache/hosted/pub.dartlang.org/fake_async-1.1.0",
      "packageUri": "lib/",
      "languageVersion": "2.2"
    },
    {
      "name": "ff_navigation_bar",
      "rootUri": "file:///C:/flutter/.pub-cache/hosted/pub.dartlang.org/ff_navigation_bar-0.1.5",
      "packageUri": "lib/",
      "languageVersion": "2.1"
    },
    {
      "name": "ffi",
      "rootUri": "file:///C:/flutter/.pub-cache/hosted/pub.dartlang.org/ffi-0.1.3",
      "packageUri": "lib/",
      "languageVersion": "2.6"
    },
    {
      "name": "file",
      "rootUri": "file:///C:/flutter/.pub-cache/hosted/pub.dartlang.org/file-5.2.1",
      "packageUri": "lib/",
      "languageVersion": "2.2"
    },
    {
      "name": "firebase",
      "rootUri": "file:///C:/flutter/.pub-cache/hosted/pub.dartlang.org/firebase-7.3.1",
      "packageUri": "lib/",
      "languageVersion": "2.7"
    },
    {
      "name": "firebase_auth",
      "rootUri": "file:///C:/flutter/.pub-cache/hosted/pub.dartlang.org/firebase_auth-0.18.1+2",
      "packageUri": "lib/",
      "languageVersion": "2.0"
    },
    {
      "name": "firebase_auth_platform_interface",
      "rootUri": "file:///C:/flutter/.pub-cache/hosted/pub.dartlang.org/firebase_auth_platform_interface-2.1.1",
      "packageUri": "lib/",
      "languageVersion": "2.0"
    },
    {
      "name": "firebase_auth_web",
      "rootUri": "file:///C:/flutter/.pub-cache/hosted/pub.dartlang.org/firebase_auth_web-0.3.1+1",
      "packageUri": "lib/",
      "languageVersion": "2.0"
    },
    {
      "name": "firebase_core",
      "rootUri": "file:///C:/flutter/.pub-cache/hosted/pub.dartlang.org/firebase_core-0.5.0+1",
      "packageUri": "lib/",
      "languageVersion": "2.1"
    },
    {
      "name": "firebase_core_platform_interface",
      "rootUri": "file:///C:/flutter/.pub-cache/hosted/pub.dartlang.org/firebase_core_platform_interface-2.0.0",
      "packageUri": "lib/",
      "languageVersion": "2.1"
    },
    {
      "name": "firebase_core_web",
      "rootUri": "file:///C:/flutter/.pub-cache/hosted/pub.dartlang.org/firebase_core_web-0.2.0",
      "packageUri": "lib/",
      "languageVersion": "2.1"
    },
    {
      "name": "flare_dart",
      "rootUri": "file:///C:/flutter/.pub-cache/hosted/pub.dartlang.org/flare_dart-2.3.4",
      "packageUri": "lib/",
      "languageVersion": "2.1"
    },
    {
      "name": "flare_flutter",
      "rootUri": "file:///C:/flutter/.pub-cache/hosted/pub.dartlang.org/flare_flutter-2.0.6",
      "packageUri": "lib/",
      "languageVersion": "2.2"
    },
    {
      "name": "flutter",
      "rootUri": "file:///C:/flutter/packages/flutter",
      "packageUri": "lib/",
      "languageVersion": "2.9"
    },
    {
      "name": "flutter_blurhash",
      "rootUri": "file:///C:/flutter/.pub-cache/hosted/pub.dartlang.org/flutter_blurhash-0.5.0",
      "packageUri": "lib/",
      "languageVersion": "2.4"
    },
    {
      "name": "flutter_cache_manager",
      "rootUri": "file:///C:/flutter/.pub-cache/hosted/pub.dartlang.org/flutter_cache_manager-1.4.2",
      "packageUri": "lib/",
      "languageVersion": "2.6"
    },
    {
      "name": "flutter_downloader",
      "rootUri": "file:///C:/flutter/.pub-cache/hosted/pub.dartlang.org/flutter_downloader-1.5.1",
      "packageUri": "lib/",
      "languageVersion": "1.20"
    },
    {
      "name": "flutter_inappwebview",
      "rootUri": "file:///C:/flutter/.pub-cache/hosted/pub.dartlang.org/flutter_inappwebview-4.0.0+4",
      "packageUri": "lib/",
      "languageVersion": "2.7"
    },
    {
      "name": "flutter_layout_grid",
      "rootUri": "file:///C:/flutter/.pub-cache/hosted/pub.dartlang.org/flutter_layout_grid-0.10.2",
      "packageUri": "lib/",
      "languageVersion": "2.6"
    },
    {
      "name": "flutter_plugin_android_lifecycle",
      "rootUri": "file:///C:/flutter/.pub-cache/hosted/pub.dartlang.org/flutter_plugin_android_lifecycle-1.0.11",
      "packageUri": "lib/",
      "languageVersion": "2.1"
    },
    {
      "name": "flutter_svg",
      "rootUri": "file:///C:/flutter/.pub-cache/hosted/pub.dartlang.org/flutter_svg-0.18.1",
      "packageUri": "lib/",
      "languageVersion": "2.2"
    },
    {
      "name": "flutter_test",
      "rootUri": "file:///C:/flutter/packages/flutter_test",
      "packageUri": "lib/",
      "languageVersion": "2.2"
    },
    {
      "name": "flutter_web_plugins",
      "rootUri": "file:///C:/flutter/packages/flutter_web_plugins",
      "packageUri": "lib/",
      "languageVersion": "2.0"
    },
    {
      "name": "flutter_widget_from_html",
      "rootUri": "file:///C:/flutter/.pub-cache/hosted/pub.dartlang.org/flutter_widget_from_html-0.5.0+7",
      "packageUri": "lib/",
      "languageVersion": "2.7"
    },
    {
      "name": "flutter_widget_from_html_core",
      "rootUri": "file:///C:/flutter/.pub-cache/hosted/pub.dartlang.org/flutter_widget_from_html_core-0.5.0+7",
      "packageUri": "lib/",
      "languageVersion": "2.7"
    },
    {
      "name": "fluttertoast",
      "rootUri": "file:///C:/flutter/.pub-cache/hosted/pub.dartlang.org/fluttertoast-7.1.1",
      "packageUri": "lib/",
      "languageVersion": "2.7"
    },
    {
      "name": "google_fonts",
      "rootUri": "file:///C:/flutter/.pub-cache/hosted/pub.dartlang.org/google_fonts-1.1.0",
      "packageUri": "lib/",
      "languageVersion": "2.3"
    },
    {
      "name": "html",
      "rootUri": "file:///C:/flutter/.pub-cache/hosted/pub.dartlang.org/html-0.14.0+3",
      "packageUri": "lib/",
      "languageVersion": "2.3"
    },
    {
      "name": "http",
      "rootUri": "file:///C:/flutter/.pub-cache/hosted/pub.dartlang.org/http-0.12.2",
      "packageUri": "lib/",
      "languageVersion": "2.4"
    },
    {
      "name": "http_auth",
      "rootUri": "file:///C:/flutter/.pub-cache/hosted/pub.dartlang.org/http_auth-0.3.0",
      "packageUri": "lib/",
      "languageVersion": "2.1"
    },
    {
      "name": "http_parser",
      "rootUri": "file:///C:/flutter/.pub-cache/hosted/pub.dartlang.org/http_parser-3.1.4",
      "packageUri": "lib/",
      "languageVersion": "2.3"
    },
    {
      "name": "image_picker",
      "rootUri": "file:///C:/flutter/.pub-cache/hosted/pub.dartlang.org/image_picker-0.6.7+11",
      "packageUri": "lib/",
      "languageVersion": "2.1"
    },
    {
      "name": "image_picker_platform_interface",
      "rootUri": "file:///C:/flutter/.pub-cache/hosted/pub.dartlang.org/image_picker_platform_interface-1.1.1",
      "packageUri": "lib/",
      "languageVersion": "2.5"
    },
    {
      "name": "intl",
      "rootUri": "file:///C:/flutter/.pub-cache/hosted/pub.dartlang.org/intl-0.16.1",
      "packageUri": "lib/",
      "languageVersion": "2.5"
    },
    {
      "name": "js",
      "rootUri": "file:///C:/flutter/.pub-cache/hosted/pub.dartlang.org/js-0.6.2",
      "packageUri": "lib/",
      "languageVersion": "2.0"
    },
    {
      "name": "matcher",
      "rootUri": "file:///C:/flutter/.pub-cache/hosted/pub.dartlang.org/matcher-0.12.8",
      "packageUri": "lib/",
      "languageVersion": "2.4"
    },
    {
      "name": "meta",
      "rootUri": "file:///C:/flutter/.pub-cache/hosted/pub.dartlang.org/meta-1.1.8",
      "packageUri": "lib/",
      "languageVersion": "1.12"
    },
    {
      "name": "mime",
      "rootUri": "file:///C:/flutter/.pub-cache/hosted/pub.dartlang.org/mime-0.9.7",
      "packageUri": "lib/",
      "languageVersion": "2.0"
    },
    {
      "name": "nested",
      "rootUri": "file:///C:/flutter/.pub-cache/hosted/pub.dartlang.org/nested-0.0.4",
      "packageUri": "lib/",
      "languageVersion": "2.2"
    },
    {
      "name": "objectdb",
      "rootUri": "file:///C:/flutter/.pub-cache/hosted/pub.dartlang.org/objectdb-1.0.10+1",
      "packageUri": "lib/",
      "languageVersion": "2.7"
    },
    {
      "name": "octo_image",
      "rootUri": "file:///C:/flutter/.pub-cache/hosted/pub.dartlang.org/octo_image-0.3.0",
      "packageUri": "lib/",
      "languageVersion": "2.7"
    },
    {
      "name": "open_iconic_flutter",
      "rootUri": "file:///C:/flutter/.pub-cache/hosted/pub.dartlang.org/open_iconic_flutter-0.3.0",
      "packageUri": "lib/",
      "languageVersion": "2.0"
    },
    {
      "name": "page_transition",
      "rootUri": "file:///C:/flutter/.pub-cache/hosted/pub.dartlang.org/page_transition-1.1.7+2",
      "packageUri": "lib/",
      "languageVersion": "2.3"
    },
    {
      "name": "path",
      "rootUri": "file:///C:/flutter/.pub-cache/hosted/pub.dartlang.org/path-1.7.0",
      "packageUri": "lib/",
      "languageVersion": "2.0"
    },
    {
      "name": "path_drawing",
      "rootUri": "file:///C:/flutter/.pub-cache/hosted/pub.dartlang.org/path_drawing-0.4.1+1",
      "packageUri": "lib/",
      "languageVersion": "1.19"
    },
    {
      "name": "path_parsing",
      "rootUri": "file:///C:/flutter/.pub-cache/hosted/pub.dartlang.org/path_parsing-0.1.4",
      "packageUri": "lib/",
      "languageVersion": "1.19"
    },
    {
      "name": "path_provider",
      "rootUri": "file:///C:/flutter/.pub-cache/hosted/pub.dartlang.org/path_provider-1.6.18",
      "packageUri": "lib/",
      "languageVersion": "2.1"
    },
    {
      "name": "path_provider_linux",
      "rootUri": "file:///C:/flutter/.pub-cache/hosted/pub.dartlang.org/path_provider_linux-0.0.1+2",
      "packageUri": "lib/",
      "languageVersion": "2.1"
    },
    {
      "name": "path_provider_macos",
      "rootUri": "file:///C:/flutter/.pub-cache/hosted/pub.dartlang.org/path_provider_macos-0.0.4+4",
      "packageUri": "lib/",
      "languageVersion": "2.1"
    },
    {
      "name": "path_provider_platform_interface",
      "rootUri": "file:///C:/flutter/.pub-cache/hosted/pub.dartlang.org/path_provider_platform_interface-1.0.3",
      "packageUri": "lib/",
      "languageVersion": "2.1"
    },
    {
      "name": "path_provider_windows",
      "rootUri": "file:///C:/flutter/.pub-cache/hosted/pub.dartlang.org/path_provider_windows-0.0.4+1",
      "packageUri": "lib/",
      "languageVersion": "2.1"
    },
    {
      "name": "pedantic",
      "rootUri": "file:///C:/flutter/.pub-cache/hosted/pub.dartlang.org/pedantic-1.9.0",
      "packageUri": "lib/",
      "languageVersion": "2.1"
    },
    {
      "name": "permission_handler",
      "rootUri": "file:///C:/flutter/.pub-cache/hosted/pub.dartlang.org/permission_handler-5.0.1+1",
      "packageUri": "lib/",
      "languageVersion": "2.7"
    },
    {
      "name": "permission_handler_platform_interface",
      "rootUri": "file:///C:/flutter/.pub-cache/hosted/pub.dartlang.org/permission_handler_platform_interface-2.0.1",
      "packageUri": "lib/",
      "languageVersion": "2.6"
    },
    {
      "name": "petitparser",
      "rootUri": "file:///C:/flutter/.pub-cache/hosted/pub.dartlang.org/petitparser-3.0.4",
      "packageUri": "lib/",
      "languageVersion": "2.7"
    },
    {
      "name": "pin_code_fields",
      "rootUri": "file:///C:/flutter/.pub-cache/hosted/pub.dartlang.org/pin_code_fields-5.2.0",
      "packageUri": "lib/",
      "languageVersion": "2.7"
    },
    {
      "name": "platform",
      "rootUri": "file:///C:/flutter/.pub-cache/hosted/pub.dartlang.org/platform-2.2.1",
      "packageUri": "lib/",
      "languageVersion": "1.24"
    },
    {
      "name": "plugin_platform_interface",
      "rootUri": "file:///C:/flutter/.pub-cache/hosted/pub.dartlang.org/plugin_platform_interface-1.0.3",
      "packageUri": "lib/",
      "languageVersion": "2.1"
    },
    {
      "name": "process",
      "rootUri": "file:///C:/flutter/.pub-cache/hosted/pub.dartlang.org/process-3.0.13",
      "packageUri": "lib/",
      "languageVersion": "2.0"
    },
    {
      "name": "progress_dialog",
      "rootUri": "file:///C:/flutter/.pub-cache/hosted/pub.dartlang.org/progress_dialog-1.2.4",
      "packageUri": "lib/",
      "languageVersion": "2.7"
    },
    {
      "name": "provider",
      "rootUri": "file:///C:/flutter/.pub-cache/hosted/pub.dartlang.org/provider-4.3.2+2",
      "packageUri": "lib/",
      "languageVersion": "2.7"
    },
    {
      "name": "quiver",
      "rootUri": "file:///C:/flutter/.pub-cache/hosted/pub.dartlang.org/quiver-2.1.3",
      "packageUri": "lib/",
      "languageVersion": "2.0"
    },
    {
      "name": "rxdart",
      "rootUri": "file:///C:/flutter/.pub-cache/hosted/pub.dartlang.org/rxdart-0.24.1",
      "packageUri": "lib/",
      "languageVersion": "2.6"
    },
    {
      "name": "shared_preferences",
      "rootUri": "file:///C:/flutter/.pub-cache/hosted/pub.dartlang.org/shared_preferences-0.5.12",
      "packageUri": "lib/",
      "languageVersion": "2.1"
    },
    {
      "name": "shared_preferences_linux",
      "rootUri": "file:///C:/flutter/.pub-cache/hosted/pub.dartlang.org/shared_preferences_linux-0.0.2+2",
      "packageUri": "lib/",
      "languageVersion": "2.1"
    },
    {
      "name": "shared_preferences_macos",
      "rootUri": "file:///C:/flutter/.pub-cache/hosted/pub.dartlang.org/shared_preferences_macos-0.0.1+10",
      "packageUri": "lib/",
      "languageVersion": "2.1"
    },
    {
      "name": "shared_preferences_platform_interface",
      "rootUri": "file:///C:/flutter/.pub-cache/hosted/pub.dartlang.org/shared_preferences_platform_interface-1.0.4",
      "packageUri": "lib/",
      "languageVersion": "2.1"
    },
    {
      "name": "shared_preferences_web",
      "rootUri": "file:///C:/flutter/.pub-cache/hosted/pub.dartlang.org/shared_preferences_web-0.1.2+7",
      "packageUri": "lib/",
      "languageVersion": "2.1"
    },
    {
      "name": "shared_preferences_windows",
      "rootUri": "file:///C:/flutter/.pub-cache/hosted/pub.dartlang.org/shared_preferences_windows-0.0.1+1",
      "packageUri": "lib/",
      "languageVersion": "2.1"
    },
    {
      "name": "sky_engine",
      "rootUri": "file:///C:/flutter/bin/cache/pkg/sky_engine",
      "packageUri": "lib/",
      "languageVersion": "1.11"
    },
    {
      "name": "source_span",
      "rootUri": "file:///C:/flutter/.pub-cache/hosted/pub.dartlang.org/source_span-1.7.0",
      "packageUri": "lib/",
      "languageVersion": "2.6"
    },
    {
      "name": "sqflite",
      "rootUri": "file:///C:/flutter/.pub-cache/hosted/pub.dartlang.org/sqflite-1.3.1+1",
      "packageUri": "lib/",
      "languageVersion": "2.7"
    },
    {
      "name": "sqflite_common",
      "rootUri": "file:///C:/flutter/.pub-cache/hosted/pub.dartlang.org/sqflite_common-1.0.2+1",
      "packageUri": "lib/",
      "languageVersion": "2.7"
    },
    {
      "name": "stack_trace",
      "rootUri": "file:///C:/flutter/.pub-cache/hosted/pub.dartlang.org/stack_trace-1.9.5",
      "packageUri": "lib/",
      "languageVersion": "2.0"
    },
    {
      "name": "stream_channel",
      "rootUri": "file:///C:/flutter/.pub-cache/hosted/pub.dartlang.org/stream_channel-2.0.0",
      "packageUri": "lib/",
      "languageVersion": "2.0"
    },
    {
      "name": "string_scanner",
      "rootUri": "file:///C:/flutter/.pub-cache/hosted/pub.dartlang.org/string_scanner-1.0.5",
      "packageUri": "lib/",
      "languageVersion": "2.0"
    },
    {
      "name": "stripe_payment",
      "rootUri": "file:///C:/flutter/.pub-cache/hosted/pub.dartlang.org/stripe_payment-1.0.8",
      "packageUri": "lib/",
      "languageVersion": "2.1"
    },
    {
      "name": "synchronized",
      "rootUri": "file:///C:/flutter/.pub-cache/hosted/pub.dartlang.org/synchronized-2.2.0+2",
      "packageUri": "lib/",
      "languageVersion": "2.8"
    },
    {
      "name": "term_glyph",
      "rootUri": "file:///C:/flutter/.pub-cache/hosted/pub.dartlang.org/term_glyph-1.1.0",
      "packageUri": "lib/",
      "languageVersion": "1.8"
    },
    {
      "name": "test_api",
      "rootUri": "file:///C:/flutter/.pub-cache/hosted/pub.dartlang.org/test_api-0.2.17",
      "packageUri": "lib/",
      "languageVersion": "2.7"
    },
    {
      "name": "typed_data",
      "rootUri": "file:///C:/flutter/.pub-cache/hosted/pub.dartlang.org/typed_data-1.2.0",
      "packageUri": "lib/",
      "languageVersion": "2.4"
    },
    {
      "name": "url_launcher",
      "rootUri": "file:///C:/flutter/.pub-cache/hosted/pub.dartlang.org/url_launcher-5.7.2",
      "packageUri": "lib/",
      "languageVersion": "2.1"
    },
    {
      "name": "url_launcher_linux",
      "rootUri": "file:///C:/flutter/.pub-cache/hosted/pub.dartlang.org/url_launcher_linux-0.0.1+1",
      "packageUri": "lib/",
      "languageVersion": "2.1"
    },
    {
      "name": "url_launcher_macos",
      "rootUri": "file:///C:/flutter/.pub-cache/hosted/pub.dartlang.org/url_launcher_macos-0.0.1+8",
      "packageUri": "lib/",
      "languageVersion": "2.1"
    },
    {
      "name": "url_launcher_platform_interface",
      "rootUri": "file:///C:/flutter/.pub-cache/hosted/pub.dartlang.org/url_launcher_platform_interface-1.0.8",
      "packageUri": "lib/",
      "languageVersion": "2.1"
    },
    {
      "name": "url_launcher_web",
      "rootUri": "file:///C:/flutter/.pub-cache/hosted/pub.dartlang.org/url_launcher_web-0.1.4+1",
      "packageUri": "lib/",
      "languageVersion": "2.2"
    },
    {
      "name": "url_launcher_windows",
      "rootUri": "file:///C:/flutter/.pub-cache/hosted/pub.dartlang.org/url_launcher_windows-0.0.1+1",
      "packageUri": "lib/",
      "languageVersion": "2.1"
    },
    {
      "name": "uuid",
      "rootUri": "file:///C:/flutter/.pub-cache/hosted/pub.dartlang.org/uuid-2.2.2",
      "packageUri": "lib/",
      "languageVersion": "2.2"
    },
    {
      "name": "vector_math",
      "rootUri": "file:///C:/flutter/.pub-cache/hosted/pub.dartlang.org/vector_math-2.0.8",
      "packageUri": "lib/",
      "languageVersion": "2.0"
    },
    {
      "name": "video_player",
      "rootUri": "file:///C:/flutter/.pub-cache/hosted/pub.dartlang.org/video_player-0.10.12+5",
      "packageUri": "lib/",
      "languageVersion": "2.1"
    },
    {
      "name": "video_player_platform_interface",
      "rootUri": "file:///C:/flutter/.pub-cache/hosted/pub.dartlang.org/video_player_platform_interface-2.2.0",
      "packageUri": "lib/",
      "languageVersion": "2.8"
    },
    {
      "name": "video_player_web",
      "rootUri": "file:///C:/flutter/.pub-cache/hosted/pub.dartlang.org/video_player_web-0.1.4",
      "packageUri": "lib/",
      "languageVersion": "2.8"
    },
    {
      "name": "wakelock",
      "rootUri": "file:///C:/flutter/.pub-cache/hosted/pub.dartlang.org/wakelock-0.1.4+2",
      "packageUri": "lib/",
      "languageVersion": "2.7"
    },
    {
      "name": "webview_flutter",
      "rootUri": "file:///C:/flutter/.pub-cache/hosted/pub.dartlang.org/webview_flutter-0.3.24",
      "packageUri": "lib/",
      "languageVersion": "2.7"
    },
    {
      "name": "win32",
      "rootUri": "file:///C:/flutter/.pub-cache/hosted/pub.dartlang.org/win32-1.7.3",
      "packageUri": "lib/",
      "languageVersion": "2.7"
    },
    {
      "name": "xdg_directories",
      "rootUri": "file:///C:/flutter/.pub-cache/hosted/pub.dartlang.org/xdg_directories-0.1.0",
      "packageUri": "lib/",
      "languageVersion": "2.3"
    },
    {
      "name": "xml",
      "rootUri": "file:///C:/flutter/.pub-cache/hosted/pub.dartlang.org/xml-4.5.1",
      "packageUri": "lib/",
      "languageVersion": "2.7"
    },
    {
      "name": "youtube_player_flutter",
      "rootUri": "file:///C:/flutter/.pub-cache/hosted/pub.dartlang.org/youtube_player_flutter-7.0.0+7",
      "packageUri": "lib/",
      "languageVersion": "2.7"
    },
    {
      "name": "modelinmilan",
      "rootUri": "../",
      "packageUri": "lib/",
      "languageVersion": "2.7"
    }
  ],
  "generated": "2020-10-29T17:07:16.132843Z",
  "generator": "pub",
  "generatorVersion": "2.9.1"
}
